......................
----------------------------------------------------------------------
Ran 22 tests in 0.008s

OK
Name             Stmts   Miss Branch BrPart  Cover   Missing
------------------------------------------------------------
Collatz.py          39      0     20      0   100%
TestCollatz.py      86      0      2      0   100%
------------------------------------------------------------
TOTAL              125      0     22      0   100%
