...................
----------------------------------------------------------------------
Ran 19 tests in 0.228s

OK
Name             Stmts   Miss Branch BrPart  Cover   Missing
------------------------------------------------------------
Collatz.py          48      0     14      0   100%
TestCollatz.py      83      0      2      0   100%
------------------------------------------------------------
TOTAL              131      0     16      0   100%



