90591 27192 351
57118 79081 351
13753 53100 340
28457 29923 272
16923 91533 351
41795 43815 288
24391 71020 340
9098 65324 340
11096 17837 279
25143 17939 282
72273 37581 340
589 33865 308
17821 9572 279
1232 92292 351
18413 64663 340
43792 13052 324
29210 52632 340
14523 57312 340
97412 23382 351
53099 94759 351
4159 53674 340
74779 25897 340
18201 98502 351
77058 87304 338
17553 47725 324
95163 4467 351
66422 57417 335
52030 48147 309
94828 1814 351
46468 71423 340
38529 44712 306
6624 43085 324
57989 31399 340
32324 36539 324
39743 69963 340
70671 30054 340
2143 93810 351
51992 34943 324
47510 29955 324
46653 49663 314
81927 71362 351
67320 58895 335
17772 69532 340
77444 21433 351
64127 83890 351
61499 8596 340
94869 11300 351
4895 88473 351
96247 70210 351
11766 84396 351
40958 73079 340
1300 58308 340
54114 42191 340
1257 73269 340
66267 27943 340
96788 70432 351
49321 51709 309
97452 88801 333
63067 35746 340
48866 57860 340
27178 32414 285
38611 56435 340
8744 44075 324
77539 16871 351
69461 62102 330
73278 92922 351
88188 42718 351
41407 3381 324
47570 86669 351
34170 73372 340
70524 38746 340
4537 55973 340
63153 48342 340
17849 2830 279
51016 10997 324
81118 38438 351
60623 99596 351
8401 73955 340
28877 39719 324
26499 53688 340
72426 90394 351
61635 82890 351
17392 72695 340
29487 79697 351
63478 81278 351
7055 1372 262
74385 76781 325
50001 99819 351
52035 74519 340
1443 94199 351
57080 22315 340
18088 16628 279
98212 76156 351
56922 52608 322
69872 55135 335
11798 91522 351
50064 96971 351
33732 47113 324
14823 7659 276
88266 42733 351
48055 75092 340
46433 3642 324
36551 74394 340
75105 28509 340
7793 6262 257
62661 88440 351
55588 52736 322
53037 80691 351
71325 32788 340
2117 86977 351
4072 86914 351
96240 68094 351
7321 44711 324
37374 2246 324
75288 77716 351
95917 1345 351
16219 56813 340
4740 47941 324
89532 63405 351
7513 45285 324
87725 65573 351
75491 88545 351
85902 80237 320
22816 40792 324
14735 24495 282
96090 66371 351
99811 81730 333
99974 1508 351
61572 86373 351
81305 65247 351
29019 83396 351
90024 62953 351
9467 53263 340
17947 63035 340
21328 5927 279
78119 53169 351
27808 88767 351
13301 93272 351
62641 56860 335
38943 35588 324
74685 28037 340
55286 67642 335
45087 68591 340
63159 65033 330
47821 1166 324
87027 10321 351
74750 80839 351
69869 88812 351
37851 39551 275
52081 72141 340
8 4 17
Invalid input
Invalid input
2 5 8
Invalid input
Invalid input
6 8 17
Invalid input
1 8 17
Invalid input
1 1 1
2 2 2
